<svg width="16" height="16" viewBox="0 0 16 16" fill="none" xmlns="http://www.w3.org/2000/svg">
<path d="M12.0624 0H3.93747C3.67859 0 3.46872 0.209873 3.46872 0.468746V4.74132L5.89048 5.81769L7.80943 4.96482C7.93065 4.91091 8.06896 4.91091 8.19018 4.96482L10.1092 5.81769L12.5311 4.74135V0.468746C12.5311 0.209873 12.3213 0 12.0624 0Z" fill="#1B374C"/>
<path d="M15.9642 7.82068C15.8916 7.64552 15.7207 7.53131 15.5311 7.53131H12.5312V4.43402L10.2996 5.42579C10.1784 5.4797 10.0401 5.4797 9.91888 5.42579L7.99983 4.57293L6.08088 5.42579C5.95975 5.47964 5.82132 5.4797 5.7001 5.42579L3.46871 4.43405V7.53131H0.468741C0.279148 7.53131 0.108212 7.64549 0.0356819 7.82068C-0.0368488 7.99583 0.00324465 8.19746 0.137306 8.33152L7.66849 15.8627C7.76002 15.9542 7.87999 16 7.99992 16C8.11989 16 8.23986 15.9542 8.33136 15.8627L15.8625 8.33149C15.9966 8.19746 16.0367 7.99586 15.9642 7.82068ZM5.59185 7.02028C6.07922 6.53291 6.87225 6.53291 7.35962 7.02028C7.84699 7.50768 7.84696 8.3007 7.35962 8.78801C6.87231 9.27532 6.07925 9.27538 5.59188 8.78801C5.10339 8.29955 5.10332 7.50887 5.59185 7.02028ZM6.38288 11.7083C6.19978 11.8914 5.90304 11.8913 5.71998 11.7083C5.53691 11.5252 5.53691 11.2284 5.71998 11.0454L9.61697 7.14837C9.8 6.96534 10.0968 6.96534 10.2799 7.14837C10.4629 7.3314 10.4629 7.62821 10.2799 7.81127L6.38288 11.7083ZM10.408 11.8364C9.91956 12.3249 9.12879 12.325 8.64026 11.8364C8.15289 11.349 8.15289 10.556 8.64026 10.0687C9.12873 9.58016 9.9195 9.5801 10.408 10.0687C10.8965 10.5571 10.8966 11.3479 10.408 11.8364Z" fill="#6848E2"/>
<path d="M6.69654 7.68291C6.5747 7.5611 6.37645 7.5611 6.25461 7.68291C6.13254 7.80504 6.13245 8.00269 6.25461 8.12488C6.37645 8.24672 6.5747 8.24672 6.69654 8.12488C6.81835 8.00304 6.81835 7.80479 6.69654 7.68291Z" fill="#61BB46"/>
<path d="M9.74514 10.7312C9.62296 10.609 9.42543 10.609 9.30318 10.7312C9.18137 10.853 9.18137 11.0513 9.30318 11.1731C9.42534 11.2952 9.62293 11.2953 9.74511 11.1731C9.74514 11.1731 9.74514 11.1731 9.74514 11.1731C9.86727 11.0509 9.86727 10.8533 9.74514 10.7312Z" fill="#61BB46"/>
</svg>
